set logscale x
set xlabel "number of correct observations"
set ylabel "quality"
set xrange [16:1]
set xtics 1,2
set yrange [0:1]
set ytics (0, 0.2, 0.4, 0.6, 0.8, 1)
set datafile missing "NaN"
set grid
set terminal postscript eps color solid enhanced lw 7 "Times-Roman" 24
set output "../OUTPUT.eps"
set nokey
load '../../templates/style.plt'
set bars 3
plot \
"mdhbin+ilp" using 1:2 with lines ls 3 title "Bigfoot",\
"mdhbin+ilp" using 1:2:8:5 with errorbars ls 3 pt 1,\
"mdhbin+ilphbin+ilp" using 1:2 with lines ls 7 title "Bigfoot-LR+Bigfoot",\
"mdhbin+ilphbin+ilp" using 1:2:8:5 with errorbars ls 7 pt 1,\
"boxcluster" using 1:2 with lines ls 4 title "TriclusterBox",\
"boxcluster" using 1:2:8:5 with errorbars ls 4 pt 1,\
"walk-format" using 1:2 with lines ls 6 title "Walk'n'merge",\
"walk-format" using 1:2:8:5 with errorbars ls 6 pt 1,\
"dbtf-format" using 1:2 with lines ls 8 title "DBTF",\
"dbtf-format" using 1:2:8:5 with errorbars ls 8 pt 1
